#FIG 3.2  Produced by xfig version 3.2.5c
Landscape
Center
Metric
A4      
100.00
Single
-2
1200 2
5 1 0 2 0 7 50 -1 -1 6.000 0 0 1 0 5174.316 2580.302 5805 3660 5055 3825 4185 3345
	1 1 1.00 60.00 120.00
5 1 0 2 0 7 50 -1 -1 6.000 0 1 1 0 6963.061 -3391.837 3675 4380 5790 4965 7305 5040
	1 1 1.00 60.00 120.00
5 1 0 2 0 7 50 -1 -1 6.000 0 1 1 0 1978.224 23592.434 7275 4785 5370 4350 4110 4170
	1 1 1.00 60.00 120.00
5 1 0 2 0 7 50 -1 -1 6.000 0 1 1 0 4830.205 3798.276 5505 2055 4680 1935 3495 2490
	1 1 1.00 60.00 120.00
5 1 0 2 0 7 50 -1 -1 6.000 0 1 1 0 5354.545 145.227 3195 5610 5625 6015 7695 5535
	1 1 1.00 60.00 120.00
5 1 0 2 0 7 50 -1 -1 6.000 0 1 1 0 4972.208 4146.236 9150 4620 9135 3555 9030 3045
	1 1 1.00 60.00 120.00
2 4 0 2 0 7 50 -1 -1 0.000 0 0 7 0 0 5
	 4050 6300 4050 2025 1575 2025 1575 6300 4050 6300
2 2 0 1 0 7 50 -1 -1 0.000 0 0 -1 0 0 5
	 1800 2250 3825 2250 3825 6075 1800 6075 1800 2250
2 5 0 1 0 -1 50 -1 -1 0.000 0 0 -1 0 0 5
	0 android-robot.jpg
	 5040 2115 6255 2115 6255 3480 5040 3480 5040 2115
2 2 0 2 0 7 50 -1 -1 6.000 0 0 -1 0 0 5
	 7410 4710 9660 4710 9660 5385 7410 5385 7410 4710
2 5 0 1 0 -1 50 -1 -1 0.000 0 0 -1 0 0 5
	0 progress.gif
	 2235 3600 3465 3600 3465 4800 2235 4800 2235 3600
2 2 0 2 0 7 50 -1 -1 6.000 0 0 -1 0 0 5
	 7650 2250 9450 2250 9450 2925 7650 2925 7650 2250
4 0 0 50 -1 0 16 0.0000 4 240 1575 2025 1800 GalleryLayout\001
4 0 0 50 -1 0 16 0.0000 4 180 1770 4575 4170 onListItemClick\001
4 0 0 50 -1 0 16 0.0000 4 180 1110 7935 5115 Controller\001
4 0 0 50 -1 0 16 0.0000 4 240 2745 4350 5400 onTitleSelected(position)\001
4 0 0 50 -1 0 16 0.0000 4 240 2385 6510 4470 showPicture(position)\001
4 0 0 50 -1 0 16 0.0000 4 240 1800 1935 2820 PictureFragment\001
4 0 0 50 -1 0 16 0.0000 4 225 960 5190 1830 onStart()\001
4 0 0 50 -1 0 16 0.0000 4 240 2505 4215 5775 onPictureRequired(url)\001
4 0 0 50 -1 0 16 0.0000 4 180 705 8220 2655 Model\001
4 0 0 50 -1 0 16 0.0000 4 240 2475 6615 3780 setBitmap(url, bitmap)\001
