#FIG 3.2  Produced by xfig version 3.2.5c
Landscape
Center
Metric
A4      
100.00
Single
-2
1200 2
5 1 0 2 0 7 50 -1 -1 6.000 0 1 1 0 -247.500 5017.500 2565 6705 2790 6255 3015 5355
	1 1 1.00 60.00 120.00
5 1 0 2 0 7 50 -1 -1 6.000 0 1 1 0 1301.978 6058.545 5295 6675 5340 6195 5325 5685
	1 1 1.00 60.00 120.00
5 1 0 2 0 7 50 -1 -1 6.000 0 0 1 0 1382.318 2623.152 1695 1275 2250 1545 2715 2250
	1 1 1.00 60.00 120.00
5 1 0 2 0 7 50 -1 -1 6.000 0 1 1 0 8931.616 -18723.547 3825 5235 6855 5685 9735 5760
	1 1 1.00 60.00 120.00
5 1 0 2 0 7 50 -1 -1 6.000 0 0 1 0 8536.402 -6542.917 9855 5985 8055 6045 6540 5895
	1 1 1.00 60.00 120.00
5 1 0 2 0 7 50 -1 -1 6.000 0 0 1 0 6207.019 6204.618 6555 6075 6330 6555 5865 6060
	1 1 1.00 60.00 120.00
5 1 0 2 0 7 50 -1 -1 6.000 0 0 1 0 7375.761 9632.935 6300 4710 8640 4755 9990 5325
	1 1 1.00 60.00 120.00
5 1 0 2 0 7 50 -1 -1 6.000 0 1 1 0 10162.746 4340.287 11385 5370 11760 4395 11490 3450
	1 1 1.00 60.00 120.00
5 1 0 2 0 7 50 -1 -1 6.000 0 1 1 0 13179.060 24241.707 10305 2985 8025 3420 6555 3840
	1 1 1.00 60.00 120.00
5 1 0 2 0 7 50 -1 -1 6.000 0 1 1 0 6445.431 2736.505 6540 3015 6735 2685 6285 2490
	1 1 1.00 60.00 120.00
5 1 0 2 0 7 50 -1 -1 6.000 0 1 1 0 3132.406 10764.889 6525 3615 4500 2970 3810 2880
	1 1 1.00 60.00 120.00
2 2 0 1 0 7 50 -1 -1 0.000 0 0 -1 0 0 5
	 1800 2250 3825 2250 3825 6075 1800 6075 1800 2250
2 2 1 1 0 7 50 -1 -1 4.000 0 0 -1 0 0 5
	 1800 2250 3825 2250 3825 2475 1800 2475 1800 2250
2 2 1 1 0 7 50 -1 -1 4.000 0 0 -1 0 0 5
	 1800 2475 3825 2475 3825 2700 1800 2700 1800 2475
2 2 1 1 0 7 50 -1 -1 4.000 0 0 -1 0 0 5
	 1800 2700 3825 2700 3825 2925 1800 2925 1800 2700
2 2 1 1 0 7 50 -1 -1 4.000 0 0 -1 0 0 5
	 1800 2925 3825 2925 3825 3150 1800 3150 1800 2925
2 2 1 1 0 7 50 -1 -1 4.000 0 0 -1 0 0 5
	 1800 3150 3825 3150 3825 3375 1800 3375 1800 3150
2 2 1 1 0 7 50 -1 -1 4.000 0 0 -1 0 0 5
	 1800 3375 3825 3375 3825 3600 1800 3600 1800 3375
2 2 1 1 0 7 50 -1 -1 4.000 0 0 -1 0 0 5
	 1800 3600 3825 3600 3825 3825 1800 3825 1800 3600
2 2 1 1 0 7 50 -1 -1 4.000 0 0 -1 0 0 5
	 1800 3825 3825 3825 3825 4050 1800 4050 1800 3825
2 2 1 1 0 7 50 -1 -1 4.000 0 0 -1 0 0 5
	 1800 4050 3825 4050 3825 4275 1800 4275 1800 4050
2 2 1 1 0 7 50 -1 -1 4.000 0 0 -1 0 0 5
	 1800 4275 3825 4275 3825 4500 1800 4500 1800 4275
2 2 1 1 0 7 50 -1 -1 4.000 0 0 -1 0 0 5
	 1800 4500 3825 4500 3825 4725 1800 4725 1800 4500
2 2 1 1 0 7 50 -1 -1 4.000 0 0 -1 0 0 5
	 1800 4725 3825 4725 3825 4950 1800 4950 1800 4725
2 2 1 1 0 7 50 -1 -1 4.000 0 0 -1 0 0 5
	 1800 4950 3825 4950 3825 5175 1800 5175 1800 4950
2 2 1 1 0 7 50 -1 -1 4.000 0 0 -1 0 0 5
	 1800 5175 3825 5175 3825 5400 1800 5400 1800 5175
2 2 1 1 0 7 50 -1 -1 4.000 0 0 -1 0 0 5
	 1800 5400 3825 5400 3825 5625 1800 5625 1800 5400
2 2 1 1 0 7 50 -1 -1 4.000 0 0 -1 0 0 5
	 1800 5625 3825 5625 3825 5850 1800 5850 1800 5625
2 2 0 1 0 7 50 -1 -1 0.000 0 0 -1 0 0 5
	 4275 2250 6300 2250 6300 6075 4275 6075 4275 2250
2 4 0 2 0 7 50 -1 -1 0.000 0 0 7 0 0 5
	 6525 6300 1575 6300 1575 2025 6525 2025 6525 6300
2 5 0 1 0 -1 50 -1 -1 0.000 0 0 -1 0 0 5
	0 android-robot.jpg
	 435 675 1590 675 1590 1950 435 1950 435 675
2 2 0 1 0 7 50 -1 3 4.000 0 0 -1 0 0 5
	 1800 3375 3825 3375 3825 3600 1800 3600 1800 3375
2 2 0 2 0 7 50 -1 -1 6.000 0 0 -1 0 0 5
	 9900 5400 12150 5400 12150 6300 9900 6300 9900 5400
2 2 0 2 0 7 50 -1 -1 6.000 0 0 -1 0 0 5
	 10350 2700 11700 2700 11700 3375 10350 3375 10350 2700
2 5 0 1 0 -1 50 -1 -1 0.000 0 0 -1 0 0 5
	0 progress.gif
	 3375 3600 4725 3600 4725 4725 3375 4725 3375 3600
4 0 0 50 -1 0 16 0.0000 4 240 1650 1800 6975 TitlesFragment\001
4 0 0 50 -1 0 16 0.0000 4 240 1800 4530 6990 PictureFragment\001
4 0 0 50 -1 0 16 0.0000 4 240 1575 3270 1770 GalleryLayout\001
4 0 0 50 -1 0 16 0.0000 4 180 1770 1830 1215 onListItemClick\001
4 0 0 50 -1 0 16 0.0000 4 180 1110 10440 5910 Controller\001
4 0 0 50 -1 0 16 0.0000 4 240 2745 6840 5550 onTitleSelected(position)\001
4 0 0 50 -1 0 16 0.0000 4 240 2385 6930 6360 showPicture(position)\001
4 0 0 50 -1 0 16 0.0000 4 240 2385 6390 6750 showPicture(position)\001
4 0 0 50 -1 0 16 0.0000 4 240 2505 6705 4440 onPictureRequired(url)\001
4 0 0 50 -1 0 16 0.0000 4 180 705 10665 3105 Model\001
4 0 0 50 -1 0 16 0.0000 4 240 2475 9105 3795 setBitmap(url, bitmap)\001
4 0 0 50 -1 0 16 0.0000 4 240 1935 8265 2850 onModelChanged\001
4 0 0 50 -1 0 16 0.0000 4 240 1935 6615 2385 onModelChanged\001
4 0 0 50 -1 0 16 0.0000 4 240 1935 4335 3255 onModelChanged\001
